…
Also if we want to know the number of rows in each group
 we just add the n = n()
 
우리는 multiple variables로 group을 나눌수있다(아까는 하나만 다뤘음)
```{R}
daily <- flights %>% 
  group_by(year, month, day)
daily

#result
#> # A tibble: 336,776 × 19
#> # Groups: year, month, day [365]
#> year month day dep_time sched_dep_time dep_delay arr_time
sched_arr_time
#> <int> <int> <int> <int> <int> <dbl> <int>
<int>
#> 1 2013 1 1 517 515 2 830
819
#> 2 2013 1 1 533 529 4 850
830
#> 3 2013 1 1 542 540 2 923
850
#> 4 2013 1 1 544 545 -1 1004
1022
#> 5 2013 1 1 554 600 -6 812
837
#> 6 2013 1 1 554 558 -4 740
728
#> # ℹ 336,770 more rows
#> # ℹ 11 more variables: arr_delay <dbl>, carrier <chr>, flight <int>, …
```
…
